\relax 
\providecommand\hyper@newdestlabel[2]{}
\catcode `"\active 
\providecommand\HyperFirstAtBeginDocument{\AtBeginDocument}
\HyperFirstAtBeginDocument{\ifx\hyper@anchor\@undefined
\global\let\oldcontentsline\contentsline
\gdef\contentsline#1#2#3#4{\oldcontentsline{#1}{#2}{#3}}
\global\let\oldnewlabel\newlabel
\gdef\newlabel#1#2{\newlabelxx{#1}#2}
\gdef\newlabelxx#1#2#3#4#5#6{\oldnewlabel{#1}{{#2}{#3}}}
\AtEndDocument{\ifx\hyper@anchor\@undefined
\let\contentsline\oldcontentsline
\let\newlabel\oldnewlabel
\fi}
\fi}
\global\let\hyper@last\relax 
\gdef\HyperFirstAtBeginDocument#1{#1}
\providecommand\HyField@AuxAddToFields[1]{}
\providecommand\HyField@AuxAddToCoFields[2]{}
\select@language{portuguese}
\@writefile{toc}{\select@language{portuguese}}
\@writefile{lof}{\select@language{portuguese}}
\@writefile{lot}{\select@language{portuguese}}
\citation{kristoufek_2015_10.1371/journal.pone.0123923}
\citation{bitcoin_captalization}
\citation{bitcoin_survey}
\citation{kristoufek_2015_10.1371/journal.pone.0123923}
\citation{stolfi_cuidado_com_btc}
\@writefile{toc}{\contentsline {chapter}{\numberline {1}Introdu\IeC {\c c}\IeC {\~a}o}{2}{chapter.1}}
\@writefile{lof}{\addvspace {10\p@ }}
\@writefile{lot}{\addvspace {10\p@ }}
\citation{Nakamoto_bitcoin}
\citation{Lamport_generais_bizantinos}
\citation{bitcoinbook_traduzido}
\citation{bitcoinbook_traduzido}
\citation{Nakamoto_bitcoin}
\citation{stolfi_cuidado_com_btc}
\citation{sinais_golpe_btc}
\citation{bitcoin_piramide}
\citation{acervus_unicamp}
\citation{Garcia_2014_bitcoin_e_moeda}
\@writefile{toc}{\contentsline {chapter}{\numberline {2}Justificativa}{4}{chapter.2}}
\@writefile{lof}{\addvspace {10\p@ }}
\@writefile{lot}{\addvspace {10\p@ }}
\@writefile{toc}{\contentsline {chapter}{\numberline {3}Objetivos}{5}{chapter.3}}
\@writefile{lof}{\addvspace {10\p@ }}
\@writefile{lot}{\addvspace {10\p@ }}
\citation{LICENSE}
\@writefile{toc}{\contentsline {chapter}{\numberline {4}Bitcoin}{6}{chapter.4}}
\@writefile{lof}{\addvspace {10\p@ }}
\@writefile{lot}{\addvspace {10\p@ }}
\@writefile{toc}{\contentsline {section}{\numberline {4.1}O que \IeC {\'e} Bitcoin}{6}{section.4.1}}
\citation{bitcoinbook}
\citation{bitcoinbook}
\citation{btc_non_applications}
\citation{Nakamoto_bitcoin}
\@writefile{lof}{\contentsline {figure}{\numberline {4.1}{\ignorespaces  Oferta de moedas bitcoin ao longo do tempo, que \IeC {\'e} baseada em uma taxa de emiss\IeC {\~a}o com decr\IeC {\'e}scimo geom\IeC {\'e}trico. Retirado de \cite  {bitcoinbook}}}{7}{figure.4.1}}
\newlabel{fig:bitcoin_oferta}{{4.1}{7}{Oferta de moedas bitcoin ao longo do tempo, que é baseada em uma taxa de emissão com decréscimo geométrico. Retirado de \cite {bitcoinbook}}{figure.4.1}{}}
\@writefile{toc}{\contentsline {section}{\numberline {4.2}Hist\IeC {\'o}ria}{7}{section.4.2}}
\citation{bitcoinbook_traduzido}
\citation{bitcoinbook}
\citation{bitcoinbook}
\@writefile{toc}{\contentsline {section}{\numberline {4.3}Descri\IeC {\c c}\IeC {\~a}o da plataforma}{8}{section.4.3}}
\@writefile{toc}{\contentsline {subsection}{\numberline {4.3.1}Transa\IeC {\c c}\IeC {\~o}es}{8}{subsection.4.3.1}}
\citation{bitcoinbook}
\@writefile{lof}{\contentsline {figure}{\numberline {4.2}{\ignorespaces Transa\IeC {\c c}\IeC {\~a}o da Alice fazendo parte de uma cadeia de transa\IeC {\c c}\IeC {\~o}es do Joe para o Gopesh. Retirado de \cite  {bitcoinbook}}}{9}{figure.4.2}}
\newlabel{fig:bitcoin_transacao_alice_gopesh}{{4.2}{9}{Transação da Alice fazendo parte de uma cadeia de transações do Joe para o Gopesh. Retirado de \cite {bitcoinbook}}{figure.4.2}{}}
\@writefile{lof}{\contentsline {figure}{\numberline {4.3}{\ignorespaces Transa\IeC {\c c}\IeC {\~a}o como um registro cont\IeC {\'a}bil de dupla entrada. Retirado de \cite  {bitcoinbook}}}{9}{figure.4.3}}
\newlabel{fig:bitcoin_registro_contabil}{{4.3}{9}{Transação como um registro contábil de dupla entrada. Retirado de \cite {bitcoinbook}}{figure.4.3}{}}
\citation{Nakamoto_bitcoin}
\citation{bitcoinbook}
\citation{bitcoinbook}
\citation{bitcoinbook}
\@writefile{lof}{\contentsline {figure}{\numberline {4.4}{\ignorespaces A forma mais comum de transa\IeC {\c c}\IeC {\~a}o. Retirado de \cite  {bitcoinbook}}}{10}{figure.4.4}}
\newlabel{fig:bitcoin_transacao_comum}{{4.4}{10}{A forma mais comum de transação. Retirado de \cite {bitcoinbook}}{figure.4.4}{}}
\@writefile{lof}{\contentsline {figure}{\numberline {4.5}{\ignorespaces Transa\IeC {\c c}\IeC {\~a}o agregadora de fundos. Retirado de \cite  {bitcoinbook}}}{10}{figure.4.5}}
\newlabel{fig:bitcoin_transacao_agregadora}{{4.5}{10}{Transação agregadora de fundos. Retirado de \cite {bitcoinbook}}{figure.4.5}{}}
\citation{bitcoinbook}
\citation{bitcoinbook}
\citation{bitcoinbook}
\citation{bitcoinbook}
\@writefile{lof}{\contentsline {figure}{\numberline {4.6}{\ignorespaces Transa\IeC {\c c}\IeC {\~a}o de distribui\IeC {\c c}\IeC {\~a}o de fundos. Retirado de \cite  {bitcoinbook}}}{11}{figure.4.6}}
\newlabel{fig:bitcoin_transacao_distribuidora}{{4.6}{11}{Transação de distribuição de fundos. Retirado de \cite {bitcoinbook}}{figure.4.6}{}}
\@writefile{lof}{\contentsline {figure}{\numberline {4.7}{\ignorespaces Uma cadeia de transa\IeC {\c c}\IeC {\~o}es, onde sa\IeC {\'\i }da de uma transa\IeC {\c c}\IeC {\~a}o \IeC {\'e} o entrada da pr\IeC {\'o}xima transa\IeC {\c c}\IeC {\~a}o. Retirado de \cite  {bitcoinbook}}}{11}{figure.4.7}}
\newlabel{fig:bitcoin_cadeia}{{4.7}{11}{Uma cadeia de transações, onde saída de uma transação é o entrada da próxima transação. Retirado de \cite {bitcoinbook}}{figure.4.7}{}}
\@writefile{toc}{\contentsline {subsection}{\numberline {4.3.2}Servidor de carimbo}{11}{subsection.4.3.2}}
\@writefile{lof}{\contentsline {figure}{\numberline {4.8}{\ignorespaces  Blocos ligados em uma cadeia, pela refer\IeC {\^e}ncia ao hash do cabe\IeC {\c c}alho do bloco anterior. Retirado de \cite  {bitcoinbook}}}{12}{figure.4.8}}
\newlabel{fig:bitcoin_cadeia_de_blocos}{{4.8}{12}{Blocos ligados em uma cadeia, pela referência ao hash do cabeçalho do bloco anterior. Retirado de \cite {bitcoinbook}}{figure.4.8}{}}
\@writefile{toc}{\contentsline {subsection}{\numberline {4.3.3}Prova de trabalho}{12}{subsection.4.3.3}}
\@writefile{toc}{\contentsline {subsection}{\numberline {4.3.4}Minera\IeC {\c c}\IeC {\~a}o}{13}{subsection.4.3.4}}
\@writefile{toc}{\contentsline {subsection}{\numberline {4.3.5}Incentivo}{13}{subsection.4.3.5}}
\citation{bitcoinbook}
\citation{bitcoinbook}
\citation{bitcoinbook}
\@writefile{toc}{\contentsline {subsection}{\numberline {4.3.6}Verifica\IeC {\c c}\IeC {\~a}o simplificada de pagamento}{14}{subsection.4.3.6}}
\@writefile{lof}{\contentsline {figure}{\numberline {4.9}{\ignorespaces  Calculando os nodos em uma \IeC {\'a}rvore de merkle. Retirado de \cite  {bitcoinbook}}}{14}{figure.4.9}}
\newlabel{fig:bitcoin_arvore_de_merkle}{{4.9}{14}{Calculando os nodos em uma árvore de merkle. Retirado de \cite {bitcoinbook}}{figure.4.9}{}}
\citation{bitcoinbook}
\citation{bitcoinbook}
\@writefile{lof}{\contentsline {figure}{\numberline {4.10}{\ignorespaces  A duplica\IeC {\c c}\IeC {\~a}o de um elemento de dados gera um n\IeC {\'u}mero par de elementos de dados. Retirado de \cite  {bitcoinbook}}}{15}{figure.4.10}}
\newlabel{fig:bitcoin_arvore_de_merkle_duplicada}{{4.10}{15}{A duplicação de um elemento de dados gera um número par de elementos de dados. Retirado de \cite {bitcoinbook}}{figure.4.10}{}}
\@writefile{lof}{\contentsline {figure}{\numberline {4.11}{\ignorespaces  Um trajeto de merkle usado para provar a inclus\IeC {\~a}o de um elemento de dados. Retirado de \cite  {bitcoinbook}}}{15}{figure.4.11}}
\newlabel{fig:bitcoin_arvore_de_merkle_trajeto}{{4.11}{15}{Um trajeto de merkle usado para provar a inclusão de um elemento de dados. Retirado de \cite {bitcoinbook}}{figure.4.11}{}}
\@writefile{toc}{\contentsline {subsection}{\numberline {4.3.7}Vis\IeC {\~a}o geral}{15}{subsection.4.3.7}}
\citation{bitcoinbook}
\citation{Nakamoto_bitcoin}
\citation{discussion_amendments}
\citation{Nakamoto_bitcoin}
\citation{harding_errata}
\citation{harding_blockchain}
\@writefile{lof}{\contentsline {figure}{\numberline {4.12}{\ignorespaces Vis\IeC {\~a}o Geral da Bitcoin. Retirado de \cite  {bitcoinbook}}}{16}{figure.4.12}}
\newlabel{fig:bitcoin_overview}{{4.12}{16}{Visão Geral da Bitcoin. Retirado de \cite {bitcoinbook}}{figure.4.12}{}}
\@writefile{toc}{\contentsline {section}{\numberline {4.4}Atualiza\IeC {\c c}\IeC {\~o}es do artigo original}{16}{section.4.4}}
\@writefile{toc}{\contentsline {subsection}{\numberline {4.4.1}Se\IeC {\c c}\IeC {\~a}o 1 resumo}{16}{subsection.4.4.1}}
\@writefile{toc}{\contentsline {subsection}{\numberline {4.4.2}Se\IeC {\c c}\IeC {\~a}o 2 transa\IeC {\c c}\IeC {\~o}es}{17}{subsection.4.4.2}}
\@writefile{toc}{\contentsline {subsection}{\numberline {4.4.3}Se\IeC {\c c}\IeC {\~a}o 4 prova de trabalho}{17}{subsection.4.4.3}}
\@writefile{toc}{\contentsline {subsection}{\numberline {4.4.4}Se\IeC {\c c}\IeC {\~a}o 7 recuperando espa\IeC {\c c}o em disco}{18}{subsection.4.4.4}}
\@writefile{toc}{\contentsline {subsection}{\numberline {4.4.5}Se\IeC {\c c}\IeC {\~a}o 8 verifica\IeC {\c c}\IeC {\~a}o simplificada de pagamento}{18}{subsection.4.4.5}}
\citation{bitnation}
\@writefile{toc}{\contentsline {chapter}{\numberline {5}Discuss\IeC {\~a}o}{19}{chapter.5}}
\@writefile{lof}{\addvspace {10\p@ }}
\@writefile{lot}{\addvspace {10\p@ }}
\@writefile{toc}{\contentsline {section}{\numberline {5.1}Usos para a cadeia de blocos}{19}{section.5.1}}
\citation{follow_my_vote_technology}
\citation{follow_my_vote_kikstarter}
\citation{Garcia_2014_bitcoin_e_moeda}
\citation{Kim_2015_estabilidade_1K0.1371/journal.pone.0123071}
\@writefile{toc}{\contentsline {section}{\numberline {5.2}Alguns pontos de debate}{20}{section.5.2}}
\@writefile{toc}{\contentsline {subsection}{\numberline {5.2.1}Instabilidade de pre\IeC {\c c}os}{20}{subsection.5.2.1}}
\@writefile{toc}{\contentsline {subsection}{\numberline {5.2.2}Irreversibilidade de transa\IeC {\c c}\IeC {\~o}es e media\IeC {\c c}\IeC {\~a}o de disputas}{20}{subsection.5.2.2}}
\@writefile{toc}{\contentsline {subsection}{\numberline {5.2.3}Perspectiva e desafios para economia}{20}{subsection.5.2.3}}
\citation{dwyer_2014_questao_energetica}
\citation{liquid_democracy}
\@writefile{toc}{\contentsline {subsection}{\numberline {5.2.4}Quest\IeC {\~a}o energ\IeC {\'e}tica}{21}{subsection.5.2.4}}
\@writefile{toc}{\contentsline {section}{\numberline {5.3}Sistema de vota\IeC {\c c}\IeC {\~a}o distribu\IeC {\'\i }da no mundo real}{21}{section.5.3}}
\@writefile{toc}{\contentsline {subsection}{\numberline {5.3.1}Democracias em uso e a democracia l\IeC {\'\i }quida}{21}{subsection.5.3.1}}
\@writefile{toc}{\contentsline {subsection}{\numberline {5.3.2}Democracia direta}{22}{subsection.5.3.2}}
\@writefile{lof}{\contentsline {figure}{\numberline {5.1}{\ignorespaces  Modelo de democracia direta.}}{22}{figure.5.1}}
\newlabel{fig:democracia_direta}{{5.1}{22}{Modelo de democracia direta}{figure.5.1}{}}
\@writefile{toc}{\contentsline {subsection}{\numberline {5.3.3}Democracia representativa}{22}{subsection.5.3.3}}
\@writefile{lof}{\contentsline {figure}{\numberline {5.2}{\ignorespaces  Modelo de democracia representativa.}}{23}{figure.5.2}}
\newlabel{fig:democracia_representativa}{{5.2}{23}{Modelo de democracia representativa}{figure.5.2}{}}
\@writefile{toc}{\contentsline {subsection}{\numberline {5.3.4}Democracia l\IeC {\'\i }quida}{23}{subsection.5.3.4}}
\citation{AranhaKMS14}
\@writefile{lof}{\contentsline {figure}{\numberline {5.3}{\ignorespaces  Modelo de democracia l\IeC {\'\i }quida.}}{24}{figure.5.3}}
\newlabel{fig:democracia_liquida}{{5.3}{24}{Modelo de democracia líquida}{figure.5.3}{}}
\citation{basiccoin}
\@writefile{toc}{\contentsline {chapter}{\numberline {6}Resultados}{26}{chapter.6}}
\@writefile{lof}{\addvspace {10\p@ }}
\@writefile{lot}{\addvspace {10\p@ }}
\@writefile{toc}{\contentsline {section}{\numberline {6.1}\textit  {basiccoin}}{26}{section.6.1}}
\@writefile{toc}{\contentsline {paragraph}{cli.py}{26}{paragraph*.2}}
\newlabel{alg:cly.py}{{1}{26}{cli.py}{algorithm.1}{}}
\@writefile{loa}{\contentsline {algorithm}{\numberline {1}{\ignorespaces \textbf  {cli.py} - cliente, m\IeC {\'o}dulo principal da aplica\IeC {\c c}\IeC {\~a}o }}{26}{algorithm.1}}
\@writefile{toc}{\contentsline {paragraph}{blockchain.py}{26}{paragraph*.3}}
\newlabel{alg:blockchain.py}{{2}{27}{blockchain.py}{algorithm.2}{}}
\@writefile{loa}{\contentsline {algorithm}{\numberline {2}{\ignorespaces \textbf  {blockchain.py} - m\IeC {\'o}dulo que implementa a cadeia de blocos }}{27}{algorithm.2}}
\@writefile{toc}{\contentsline {paragraph}{miner.py}{27}{paragraph*.4}}
\newlabel{alg:miner.py}{{3}{27}{miner.py}{algorithm.3}{}}
\@writefile{loa}{\contentsline {algorithm}{\numberline {3}{\ignorespaces \textbf  {miner.py} - m\IeC {\'o}dulo que implementa minera\IeC {\c c}\IeC {\~a}o de blocos }}{27}{algorithm.3}}
\@writefile{toc}{\contentsline {section}{\numberline {6.2}\textit  {Block Chain Based Vote System}}{27}{section.6.2}}
\@writefile{toc}{\contentsline {paragraph}{custom.py}{28}{paragraph*.5}}
\newlabel{alg:custom.py}{{4}{28}{custom.py}{algorithm.4}{}}
\@writefile{loa}{\contentsline {algorithm}{\numberline {4}{\ignorespaces \textbf  {custom.py} - m\IeC {\'o}dulo de customiza\IeC {\c c}\IeC {\~a}o para o protocolo }}{28}{algorithm.4}}
\@writefile{toc}{\contentsline {paragraph}{Uma prova de conceito utilizando o protocolo modificado}{28}{paragraph*.6}}
\@writefile{lof}{\contentsline {figure}{\numberline {6.1}{\ignorespaces  Criando um n\IeC {\'o} minerador de votos (\textbf  {governo}).}}{29}{figure.6.1}}
\newlabel{fig:bvote_create}{{6.1}{29}{Criando um nó minerador de votos (\textbf {governo})}{figure.6.1}{}}
\@writefile{lof}{\contentsline {figure}{\numberline {6.2}{\ignorespaces  Criando chaves p\IeC {\'u}blica/privada para cinco eleitores fict\IeC {\'\i }cios.}}{30}{figure.6.2}}
\newlabel{fig:bvote_electors}{{6.2}{30}{Criando chaves pública/privada para cinco eleitores fictícios}{figure.6.2}{}}
\@writefile{lof}{\contentsline {figure}{\numberline {6.3}{\ignorespaces  Distribuindo votos para os eleitores.}}{31}{figure.6.3}}
\newlabel{fig:bvote_distribute_votes}{{6.3}{31}{Distribuindo votos para os eleitores}{figure.6.3}{}}
\@writefile{lof}{\contentsline {figure}{\numberline {6.4}{\ignorespaces  Lista de transa\IeC {\c c}\IeC {\~o}es na fila esperando o pr\IeC {\'o}ximo bloco ser minerado.}}{32}{figure.6.4}}
\newlabel{fig:bvote_tx_list}{{6.4}{32}{Lista de transações na fila esperando o próximo bloco ser minerado}{figure.6.4}{}}
\@writefile{lof}{\contentsline {figure}{\numberline {6.5}{\ignorespaces  Ana e Carl votam em Bob.}}{33}{figure.6.5}}
\newlabel{fig:bvote_bob}{{6.5}{33}{Ana e Carl votam em Bob}{figure.6.5}{}}
\@writefile{lof}{\contentsline {figure}{\numberline {6.6}{\ignorespaces  Diana vota em Eddie.}}{34}{figure.6.6}}
\newlabel{fig:bvote_eddie}{{6.6}{34}{Diana vota em Eddie}{figure.6.6}{}}
\citation{bitcoin_core}
\@writefile{lof}{\contentsline {figure}{\numberline {6.7}{\ignorespaces  Resultados da elei\IeC {\c c}\IeC {\~a}o.}}{35}{figure.6.7}}
\newlabel{fig:bvote_results}{{6.7}{35}{Resultados da eleição}{figure.6.7}{}}
\@writefile{toc}{\contentsline {paragraph}{Uma aplica\IeC {\c c}\IeC {\~a}o \IeC {\`a} realidade brasileira:}{35}{paragraph*.7}}
\citation{AranhaKMS14}
\@writefile{toc}{\contentsline {chapter}{\numberline {7}Conclus\IeC {\~a}o}{37}{chapter.7}}
\@writefile{lof}{\addvspace {10\p@ }}
\@writefile{lot}{\addvspace {10\p@ }}
\bibdata{./bibliografia/bibliografia}
\bibcite{kristoufek_2015_10.1371/journal.pone.0123923}{1}
\bibcite{bitcoin_captalization}{2}
\bibcite{bitcoin_survey}{3}
\bibcite{stolfi_cuidado_com_btc}{4}
\bibcite{Nakamoto_bitcoin}{5}
\bibcite{Lamport_generais_bizantinos}{6}
\bibcite{bitcoinbook_traduzido}{7}
\bibcite{sinais_golpe_btc}{8}
\bibcite{bitcoin_piramide}{9}
\bibcite{acervus_unicamp}{10}
\bibcite{Garcia_2014_bitcoin_e_moeda}{11}
\bibcite{LICENSE}{12}
\bibcite{bitcoinbook}{13}
\bibcite{btc_non_applications}{14}
\bibcite{discussion_amendments}{15}
\bibcite{harding_errata}{16}
\@writefile{toc}{\contentsline {chapter}{Bibliografia}{38}{chapter.7}}
\bibcite{harding_blockchain}{17}
\bibcite{bitnation}{18}
\bibcite{follow_my_vote_technology}{19}
\bibcite{follow_my_vote_kikstarter}{20}
\bibcite{Kim_2015_estabilidade_1K0.1371/journal.pone.0123071}{21}
\bibcite{dwyer_2014_questao_energetica}{22}
\bibcite{liquid_democracy}{23}
\bibcite{AranhaKMS14}{24}
\bibcite{basiccoin}{25}
\bibcite{bitcoin_core}{26}
\bibcite{bitcoindotorg_vocabulary}{27}
\bibcite{mastering_bitcoin}{28}
\bibstyle{ieeetr}
\citation{bitcoindotorg_vocabulary}
\citation{mastering_bitcoin}
\@writefile{toc}{\contentsline {chapter}{\numberline {A}Vocabul\IeC {\'a}rio}{40}{appendix.A}}
\@writefile{lof}{\addvspace {10\p@ }}
\@writefile{lot}{\addvspace {10\p@ }}
\@writefile{toc}{\contentsline {paragraph}{Assinatura}{40}{paragraph*.9}}
\@writefile{toc}{\contentsline {paragraph}{Bip}{40}{paragraph*.10}}
\@writefile{toc}{\contentsline {paragraph}{Bit}{40}{paragraph*.11}}
\@writefile{toc}{\contentsline {paragraph}{Bitcoin}{40}{paragraph*.12}}
\@writefile{toc}{\contentsline {paragraph}{Bloco}{40}{paragraph*.13}}
\@writefile{toc}{\contentsline {paragraph}{Bloco g\IeC {\^e}nesis}{40}{paragraph*.14}}
\@writefile{toc}{\contentsline {paragraph}{BTC}{40}{paragraph*.15}}
\@writefile{toc}{\contentsline {paragraph}{Cadeia de blocos}{40}{paragraph*.16}}
\@writefile{toc}{\contentsline {paragraph}{Calibragem da meta de dificuldade}{40}{paragraph*.17}}
\@writefile{toc}{\contentsline {paragraph}{Carteira}{40}{paragraph*.18}}
\@writefile{toc}{\contentsline {paragraph}{Chave privada}{41}{paragraph*.19}}
\@writefile{toc}{\contentsline {paragraph}{Chave p\IeC {\'u}blica}{41}{paragraph*.20}}
\@writefile{toc}{\contentsline {paragraph}{Confirma\IeC {\c c}\IeC {\~a}o}{41}{paragraph*.21}}
\@writefile{toc}{\contentsline {paragraph}{Criptografia}{41}{paragraph*.22}}
\@writefile{toc}{\contentsline {paragraph}{Dificuldade}{41}{paragraph*.23}}
\@writefile{toc}{\contentsline {paragraph}{Endere\IeC {\c c}o}{41}{paragraph*.24}}
\@writefile{toc}{\contentsline {paragraph}{Gasto duplo}{41}{paragraph*.25}}
\@writefile{toc}{\contentsline {paragraph}{Hash}{41}{paragraph*.26}}
\@writefile{toc}{\contentsline {paragraph}{Minera\IeC {\c c}\IeC {\~a}o}{42}{paragraph*.27}}
\@writefile{toc}{\contentsline {paragraph}{Minerador}{42}{paragraph*.28}}
\@writefile{toc}{\contentsline {paragraph}{ponto a ponto - P2P}{42}{paragraph*.29}}
\@writefile{toc}{\contentsline {paragraph}{Prova de trabalho}{42}{paragraph*.30}}
\@writefile{toc}{\contentsline {paragraph}{Recompensa}{42}{paragraph*.31}}
\@writefile{toc}{\contentsline {paragraph}{Rede}{42}{paragraph*.32}}
\@writefile{toc}{\contentsline {paragraph}{Taxa de hash}{42}{paragraph*.33}}
\@writefile{toc}{\contentsline {paragraph}{Taxa de processamento de transa\IeC {\c c}\IeC {\~a}o}{42}{paragraph*.34}}
\@writefile{toc}{\contentsline {paragraph}{Transa\IeC {\c c}\IeC {\~a}o}{42}{paragraph*.35}}
