This is BibTeX, Version 0.99d (TeX Live 2015/Debian)
Capacity: max_strings=35307, hash_size=35307, hash_prime=30011
The top-level auxiliary file: monografia.aux
The style file: ieeetr.bst
Database file #1: ./bibliografia/bibliografia.bib
Warning--empty journal in AranhaKMS14
You've used 28 entries,
            1876 wiz_defined-function locations,
            611 strings with 7710 characters,
and the built_in function-call counts, 4314 in all, are:
= -- 449
> -- 80
< -- 0
+ -- 44
- -- 16
* -- 201
:= -- 518
add.period$ -- 50
call.type$ -- 28
change.case$ -- 27
chr.to.int$ -- 0
cite$ -- 29
duplicate$ -- 189
empty$ -- 566
format.name$ -- 16
if$ -- 1154
int.to.chr$ -- 0
int.to.str$ -- 28
missing$ -- 10
newline$ -- 109
num.names$ -- 9
pop$ -- 184
preamble$ -- 1
purify$ -- 0
quote$ -- 0
skip$ -- 134
stack$ -- 0
substring$ -- 134
swap$ -- 43
text.length$ -- 0
text.prefix$ -- 0
top$ -- 0
type$ -- 0
warning$ -- 1
while$ -- 23
width$ -- 30
write$ -- 241
(There was 1 warning)
